…
Cross Validation using 'modelr'
-------------------------------

``` r
cv_df = 
  crossv_mc(nonlin_df, 100)
```

What is happening here...

``` r
cv_df %>% pull(train) %>% .[[1]] %>% as_tibble()
```

    ## # A tibble: 79 x 3
    ##       id      x      y
    ##    <int>  <dbl>  <dbl>
    ##  1     1 0.375   1.18 
    ##  2     2 0.572   0.378
    ##  3     3 0.891  -2.16 
    ##  4     4 0.297   1.39 
    ##  5     5 0.0516  0.378
    ##  6     6 0.979  -3.73 
    ##  7     8 0.760  -0.944
    ##  8     9 0.227   1.22 
    ##  9    10 0.938  -2.61 
    ## 10    11 0.444   0.920
    ## # ... with 69 more rows

``` r
cv_df %>% pull(test) %>% .[[1]] %>% as_tibble()
```

    ## # A tibble: 21 x 3
    ##       id       x       y
    ##    <int>   <dbl>   <dbl>
    ##  1     7 0.00457  0.0977
    ##  2    12 0.768   -1.33  
    ##  3    19 0.736   -0.792 
    ##  4    26 0.154    0.634 
    ##  5    29 0.886   -2.45  
    ##  6    35 0.926   -2.98  
    ##  7    39 0.604    0.561 
    ##  8    43 0.873   -2.11  
    ##  9    48 0.857   -1.75  
    ## 10    56 0.771   -0.993 
    ## # ... with 11 more rows
…
