…
Let's start with a for loop

``` r
output = vector('list', 100)

for(i in 1:100){
  
  output[[i]] = sim_mean_sd(30)
}

bind_rows(output)
```

    ## # A tibble: 100 x 2
    ##     mean    sd
    ##    <dbl> <dbl>
    ##  1  2.84  4.11
    ##  2  3.51  2.78
    ##  3  4.61  3.73
    ##  4  1.26  3.18
    ##  5  2.46  3.99
    ##  6  3.80  3.45
    ##  7  3.17  4.39
    ##  8  3.37  4.25
    ##  9  4.11  5.05
    ## 10  2.50  3.60
    ## # ... with 90 more rows
…
